More on nested data frames
…
Instead, however, lets put the model right back into the nested data frame:

gap_nested_lm <- gap_nested_lm %>% 
  mutate(lm_fit = map(data, gap_lm))

gap_nested_lm

## # A tibble: 142 x 4
## # Groups:   country, continent [710]
##    country     continent data              lm_fit
##    <fct>       <fct>     <list>            <list>
##  1 Afghanistan Asia      <tibble [12  5]> <lm>  
##  2 Albania     Europe    <tibble [12  5]> <lm>  
##  3 Algeria     Africa    <tibble [12  5]> <lm>  
##  4 Angola      Africa    <tibble [12  5]> <lm>  
##  5 Argentina   Americas  <tibble [12  5]> <lm>  
##  6 Australia   Oceania   <tibble [12  5]> <lm>  
##  7 Austria     Europe    <tibble [12  5]> <lm>  
##  8 Bahrain     Asia      <tibble [12  5]> <lm>  
##  9 Bangladesh  Asia      <tibble [12  5]> <lm>  
## 10 Belgium     Europe    <tibble [12  5]> <lm>  
## #  with 132 more rows
…
At this point, maybe we would like to plot the residuals, or otherwise use them, going back to the original observations. The function unnest() will take care of this for us.

gap_unnested <- unnest(gap_nested_lm, resid)
select(gap_unnested, country, year, resid)

## Adding missing grouping variables: `continent`

## # A tibble: 1,704 x 4
## # Groups:   country, continent [710]
##    continent country      year    resid
##    <fct>     <fct>       <int>    <dbl>
##  1 Asia      Afghanistan  1952 -0.0202 
##  2 Asia      Afghanistan  1957  0.00433
##  3 Asia      Afghanistan  1962  0.0231 
##  4 Asia      Afghanistan  1967  0.0164 
##  5 Asia      Afghanistan  1972 -0.0347 
##  6 Asia      Afghanistan  1977 -0.00641
##  7 Asia      Afghanistan  1982  0.0905 
##  8 Asia      Afghanistan  1987  0.0328 
##  9 Asia      Afghanistan  1992 -0.0834 
## 10 Asia      Afghanistan  1997 -0.0909 
## #  with 1,694 more rows
…
