Network Visualization
…
Movie trailer at https://youtu.be/1dYv5u6v55Y

From screenplay to incidence matrix

The screenplay can be found here, but I saved it as a text file.

library(stringr)
raw.pnp <- readLines("pride_and_prejudice_screenplay_2005.txt")

(lines <- data_frame(raw = raw.pnp) %>% filter(raw != ""))

## Warning: `data_frame()` is deprecated, use `tibble()`.
## This warning is displayed once per session.

## # A tibble: 5,568 x 1
##    raw                                                                
##    <chr>                                                              
##  1 "PRIDE AND PREJUDICE"                                              
##  2 "                         "                                        
##  3 "                                Written by"                       
##  4 "                             Deborah Moggach"                     
##  5 "                         "                                        
##  6 "                         "                                        
##  7 "          1 INT. NETHERFIELD - HERTFORDSHIRE - DAY. I"            
##  8 "          A vast mansion is coming to life. Maids pull dustsheets"
##  9 "          off furniture; servants open shutters. Sunshine spills" 
## 10 "          into the great rooms of Netherfield. outside, a glimpse"
## #  with 5,558 more rows
…
The data is now almost ready to work with

by_character_scene <- lines %>% count(scene, character)    
by_character_scene

## # A tibble: 314 x 3
##    scene character      n
##    <int> <chr>      <int>
##  1     2 MR BENNET      1
##  2     2 MRS BENNET     1
##  3     3 JANE           1
##  4     3 KITTY          1
##  5     3 LYDIA          2
##  6     3 MR BENNET      2
##  7     3 MRS BENNET     2
##  8     4 MRS BENNET     1
##  9     5 ELIZABETH      1
## 10     5 JANE           1
## #  with 304 more rows
…
