Tidy Models with Broom
…
Could this vary by team?

team_regressions <- merged %>% group_by(teamID) %>%
    do(tidy(lm(log10(salary) ~ average + yearID, .), conf.int = TRUE))
team_regressions

## # A tibble: 105 x 8
## # Groups:   teamID [35]
##    teamID term      estimate std.error statistic p.value conf.low conf.high
##    <chr>  <chr>        <dbl>     <dbl>     <dbl>   <dbl>    <dbl>     <dbl>
##  1 ANA    (Interc -87.8      83.4        -1.05  0.300   -2.58e+2   82.2   
##  2 ANA    average    3.51      3.97        0.885 0.383   -4.58e+0   11.6   
##  3 ANA    yearID     0.0465    0.0417      1.12  0.273   -3.86e-2    0.132 
##  4 ARI    (Interc  12.1      24.3         0.495 0.622   -3.66e+1   60.7   
##  5 ARI    average    1.02      2.78        0.368 0.715   -4.54e+0    6.59  
##  6 ARI    yearID    -0.00301   0.0121     -0.249 0.804   -2.72e-2    0.0212
##  7 ATL    (Interc -29.7      12.4        -2.40  0.0181  -5.42e+1   -5.19  
##  8 ATL    average    1.33      2.09        0.634 0.527   -2.82e+0    5.48  
##  9 ATL    yearID     0.0178    0.00616     2.89  0.00472  5.59e-3    0.0300
## 10 BAL    (Interc -32.9      10.4        -3.16  0.00207 -5.36e+1  -12.3   
## #  with 95 more rows
…
