Introduction to tidytext
…
Now that the data is tidy, we can use regular tools from the tidyverse. For example, what are the most common words?

tidy_prideprejudice %>%
  count(word, sort = TRUE)

## # A tibble: 6,538 x 2
##    word      n
##    <chr> <int>
##  1 the    4331
##  2 to     4162
##  3 of     3610
##  4 and    3585
##  5 her    2203
##  6 i      2065
##  7 a      1954
##  8 in     1880
##  9 was    1843
## 10 she    1695
## #  with 6,528 more rows
…
tidy_prideprejudice %>% 
  anti_join(stop_words) %>%
  count(word, sort = TRUE)

## Joining, by = "word"

## # A tibble: 6,009 x 2
##    word          n
##    <chr>     <int>
##  1 elizabeth   597
##  2 darcy       373
##  3 bennet      294
##  4 miss        283
##  5 jane        264
##  6 bingley     257
##  7 time        203
##  8 lady        183
##  9 sister      180
## 10 wickham     162
## #  with 5,999 more rows
…
N-grams

What about pairs or triples of words? These are known as “n-grams”, and can be obtained by an optional argument to unnest_tokens().

tidy_prideprejudice_bigram <- prideprejudice.tbl %>%
  unnest_tokens(bigram, text, token = "ngrams", n = 2)
tidy_prideprejudice_bigram

## # A tibble: 114,045 x 3
##    linenumber chapter bigram       
##         <int>   <int> <chr>        
##  1          1       0 pride and    
##  2          1       0 and prejudice
##  3          2       0 <NA>         
##  4          3       0 by jane      
##  5          3       0 jane austen  
##  6          4       0 <NA>         
##  7          5       0 <NA>         
##  8          6       0 <NA>         
##  9          7       1 chapter 1    
## 10          8       1 <NA>         
## #  with 114,035 more rows

We cant just drop stop words, since that will mess up the pairs.

Instead, we can split out the words in a pair and delete the pairs with a stop word in them

prideprejudice_bigrams_separated <- tidy_prideprejudice_bigram %>%
  separate(bigram, c("word1", "word2"), sep = " ")

prideprejudice_bigrams_filtered <- prideprejudice_bigrams_separated %>%
  filter(!word1 %in% stop_words$word) %>%
  filter(!word2 %in% stop_words$word)

prideprejudice_bigrams_filtered

## # A tibble: 8,835 x 4
##    linenumber chapter word1       word2       
##         <int>   <int> <chr>       <chr>       
##  1          2       0 <NA>        <NA>        
##  2          3       0 jane        austen      
##  3          4       0 <NA>        <NA>        
##  4          5       0 <NA>        <NA>        
##  5          6       0 <NA>        <NA>        
##  6          7       1 chapter     1           
##  7          8       1 <NA>        <NA>        
##  8          9       1 <NA>        <NA>        
##  9         10       1 truth       universally 
## 10         10       1 universally acknowledged
## #  with 8,825 more rows

prideprejudice_bigrams_filtered %>%
  count(word1, word2, sort = TRUE)

## # A tibble: 5,109 x 3
##    word1   word2         n
##    <chr>   <chr>     <int>
##  1 <NA>    <NA>       2556
##  2 lady    catherine    87
##  3 miss    bingley      67
##  4 miss    bennet       52
##  5 sir     william      35
##  6 de      bourgh       32
##  7 miss    darcy        32
##  8 cried   elizabeth    24
##  9 colonel forster      23
## 10 miss    lucas        23
## #  with 5,099 more rows

Sentiment Analysis

Sentiment analysis is an attempt to extract the sentiment, or feeling or attitude, from text. The most popular approach is just to match individual words against a lexicon. For later, note that get_sentiments() extracts a particular lexicon.

sentiments

## # A tibble: 27,314 x 4
##    word        sentiment lexicon score
##    <chr>       <chr>     <chr>   <int>
##  1 abacus      trust     nrc        NA
##  2 abandon     fear      nrc        NA
##  3 abandon     negative  nrc        NA
##  4 abandon     sadness   nrc        NA
##  5 abandoned   anger     nrc        NA
##  6 abandoned   fear      nrc        NA
##  7 abandoned   negative  nrc        NA
##  8 abandoned   sadness   nrc        NA
##  9 abandonment anger     nrc        NA
## 10 abandonment fear      nrc        NA
## #  with 27,304 more rows
…
We could carefully drop “miss” when its followed by a character name, but well take the sloppier approach and just filter it out.

janeaustensentiment <- tidy_books %>%
  filter(word != "miss") %>% 
  inner_join(get_sentiments("bing")) %>%
  count(book, index = linenumber %/% 80, sentiment) %>%
  spread(sentiment, n, fill = 0) %>%
  mutate(sentiment = positive - negative)

## Joining, by = "word"

janeaustensentiment

## # A tibble: 920 x 5
##    book                index negative positive sentiment
##    <fct>               <dbl>    <dbl>    <dbl>     <dbl>
##  1 Sense & Sensibility     0       16       32        16
##  2 Sense & Sensibility     1       19       53        34
##  3 Sense & Sensibility     2       11       31        20
##  4 Sense & Sensibility     3       15       31        16
##  5 Sense & Sensibility     4       16       34        18
##  6 Sense & Sensibility     5       15       51        36
##  7 Sense & Sensibility     6       24       40        16
##  8 Sense & Sensibility     7       23       51        28
##  9 Sense & Sensibility     8       30       40        10
## 10 Sense & Sensibility     9       15       19         4
## #  with 910 more rows
…
